{
  "defaultSeverity": "error",
  "extends": [
    "tslint:latest",
    "tslint-config-prettier",
    "tslint-config-airbnb"
  ],
  "rules": {
    "no-console": false,
    "semicolon": true,
    "member-access": false,
    "trailing-comma": false,
    "no-increment-decrement": false,
    "no-parameter-reassignment": false,
    "no-var-requires": false,
    "object-literal-sort-keys": false,
    "ordered-imports": false,
    "interface-name": false,
    "no-submodule-imports": false,
    "align": false,
    "ter-indent": false,
    "quotemark": [
      true,
      "single",
      "avoid-escape",
      "avoid-template"
    ]
  }
}
